<?xml version="1.0" encoding="UTF-8" standalone="no"?>
<!-- Created with Inkscape (http://www.inkscape.org/) -->

<svg
   xmlns:dc="http://purl.org/dc/elements/1.1/"
   xmlns:cc="http://creativecommons.org/ns#"
   xmlns:rdf="http://www.w3.org/1999/02/22-rdf-syntax-ns#"
   xmlns:svg="http://www.w3.org/2000/svg"
   xmlns="http://www.w3.org/2000/svg"
   xmlns:sodipodi="http://sodipodi.sourceforge.net/DTD/sodipodi-0.dtd"
   xmlns:inkscape="http://www.inkscape.org/namespaces/inkscape"
   width="64px"
   height="64px"
   id="svg6873"
   version="1.1"
   inkscape:version="0.48.4 r9939"
   sodipodi:docname="flag3.svg">
  <defs
     id="defs6875">
    <inkscape:path-effect
       effect="spiro"
       id="path-effect7411"
       is_visible="true" />
    <inkscape:perspective
       sodipodi:type="inkscape:persp3d"
       inkscape:vp_x="0 : 32 : 1"
       inkscape:vp_y="0 : 1000 : 0"
       inkscape:vp_z="64 : 32 : 1"
       inkscape:persp3d-origin="32 : 21.333333 : 1"
       id="perspective7391" />
  </defs>
  <sodipodi:namedview
     id="base"
     pagecolor="#ffffff"
     bordercolor="#666666"
     borderopacity="1.0"
     inkscape:pageopacity="0.0"
     inkscape:pageshadow="2"
     inkscape:zoom="5.5"
     inkscape:cx="16"
     inkscape:cy="39.958808"
     inkscape:current-layer="layer1"
     showgrid="true"
     inkscape:document-units="px"
     inkscape:grid-bbox="true"
     inkscape:window-width="1366"
     inkscape:window-height="705"
     inkscape:window-x="-8"
     inkscape:window-y="-8"
     inkscape:window-maximized="1" />
  <metadata
     id="metadata6878">
    <rdf:RDF>
      <cc:Work
         rdf:about="">
        <dc:format>image/svg+xml</dc:format>
        <dc:type
           rdf:resource="http://purl.org/dc/dcmitype/StillImage" />
        <dc:title></dc:title>
      </cc:Work>
    </rdf:RDF>
  </metadata>
  <g
     id="layer1"
     inkscape:label="Layer 1"
     inkscape:groupmode="layer">
    <rect
       style="fill:#000000;fill-opacity:1;stroke:none"
       id="rect6881"
       width="64"
       height="64"
       x="0"
       y="-1.9073486e-006" />
    <rect
       style="fill:#787878;fill-opacity:1;stroke:none"
       id="rect7407"
       width="62"
       height="62"
       x="1"
       y="1" />
    <path
       sodipodi:type="star"
       style="fill:#ffff00;fill-opacity:1;stroke:none"
       id="path7419"
       sodipodi:sides="5"
       sodipodi:cx="24"
       sodipodi:cy="18"
       sodipodi:r1="31.927604"
       sodipodi:r2="13.49399"
       sodipodi:arg1="0.92273944"
       sodipodi:arg2="1.551058"
       inkscape:flatsided="false"
       inkscape:rounded="0"
       inkscape:randomized="0"
       d="M 43.272728,43.454546 24.266331,31.491361 5.7468886,44.195341 11.251254,22.422356 -6.5537709,8.7350649 15.85451,7.2418051 23.369842,-13.921385 31.714557,6.9287136 54.164312,7.536434 36.913348,21.915764 z"
       inkscape:transform-center-x="0.335358"
       inkscape:transform-center-y="-2.8466926"
       transform="translate(8.7272727,16.363636)" />
    <text
       xml:space="preserve"
       style="font-size:39.50717163px;font-style:normal;font-variant:normal;font-weight:normal;font-stretch:normal;line-height:125%;letter-spacing:0px;word-spacing:0px;fill:#000000;fill-opacity:1;stroke:none;font-family:Constantia;-inkscape-font-specification:Constantia"
       x="19.950319"
       y="41.511139"
       id="text7421"
       sodipodi:linespacing="125%"
       transform="scale(1.04063,0.96095634)"><tspan
         sodipodi:role="line"
         id="tspan7423"
         x="19.950319"
         y="41.511139">4</tspan></text>
  </g>
</svg>
